{
    "tracks": {
      "href": "https://api.spotify.com/v1/search?query=The+Way+I+Wanna+Go%2C+Trace+Adkins%2C+Cadillac%27n%2C+2021%2C+&type=track&include_external=audio&market=ES&locale=pt-BR%2Cpt%3Bq%3D0.9%2Cen-US%3Bq%3D0.8%2Cen%3Bq%3D0.7&offset=0&limit=1",
      "items": [
        {
          "album": {
            "album_type": "album",
            "artists": [
              {
                "external_urls": {
                  "spotify": "https://open.spotify.com/artist/79FMDwzZQxHgSkIYBl3ODU"
                },
                "href": "https://api.spotify.com/v1/artists/79FMDwzZQxHgSkIYBl3ODU",
                "id": "79FMDwzZQxHgSkIYBl3ODU",
                "name": "Trace Adkins",
                "type": "artist",
                "uri": "spotify:artist:79FMDwzZQxHgSkIYBl3ODU"
              }
            ],
            "external_urls": {
              "spotify": "https://open.spotify.com/album/60ev0o8cT8GbqMIYtfIssT"
            },
            "href": "https://api.spotify.com/v1/albums/60ev0o8cT8GbqMIYtfIssT",
            "id": "60ev0o8cT8GbqMIYtfIssT",
            "images": [
              {
                "height": 640,
                "url": "https://i.scdn.co/image/ab67616d0000b273a685217b582eeeadfa729036",
                "width": 640
              },
              {
                "height": 300,
                "url": "https://i.scdn.co/image/ab67616d00001e02a685217b582eeeadfa729036",
                "width": 300
              },
              {
                "height": 64,
                "url": "https://i.scdn.co/image/ab67616d00004851a685217b582eeeadfa729036",
                "width": 64
              }
            ],
            "name": "The Way I Wanna Go",
            "release_date": "2021-08-27",
            "release_date_precision": "day",
            "total_tracks": 25,
            "type": "album",
            "uri": "spotify:album:60ev0o8cT8GbqMIYtfIssT"
          },
          "artists": [
            {
              "external_urls": {
                "spotify": "https://open.spotify.com/artist/79FMDwzZQxHgSkIYBl3ODU"
              },
              "href": "https://api.spotify.com/v1/artists/79FMDwzZQxHgSkIYBl3ODU",
              "id": "79FMDwzZQxHgSkIYBl3ODU",
              "name": "Trace Adkins",
              "type": "artist",
              "uri": "spotify:artist:79FMDwzZQxHgSkIYBl3ODU"
            }
          ],
          "disc_number": 1,
          "duration_ms": 245093,
          "explicit": false,
          "external_ids": {
            "isrc": "QZHZ52165642"
          },
          "external_urls": {
            "spotify": "https://open.spotify.com/track/0oCZ9HLiZGtc21CiKANhJh"
          },
          "href": "https://api.spotify.com/v1/tracks/0oCZ9HLiZGtc21CiKANhJh",
          "id": "0oCZ9HLiZGtc21CiKANhJh",
          "is_local": false,
          "is_playable": true,
          "name": "Cadillac’n",
          "popularity": 27,
          "preview_url": "https://p.scdn.co/mp3-preview/db8cb3fdfc800462c7b4161b6a1a051d94506303?cid=774b29d4f13844c495f206cafdad9c86",
          "track_number": 4,
          "type": "track",
          "uri": "spotify:track:0oCZ9HLiZGtc21CiKANhJh"
        }
      ],
      "limit": 1,
      "next": "https://api.spotify.com/v1/search?query=The+Way+I+Wanna+Go%2C+Trace+Adkins%2C+Cadillac%27n%2C+2021%2C+&type=track&include_external=audio&market=ES&locale=pt-BR%2Cpt%3Bq%3D0.9%2Cen-US%3Bq%3D0.8%2Cen%3Bq%3D0.7&offset=1&limit=1",
      "offset": 0,
      "previous": null,
      "total": 27
    }
  }